{
  "id": "dtn18",
  "question": "Ces documents font-ils mention de <a href='faq.html#donnee-caractere-personnel', target='_blank'>données à caractère personnel </a> ?",
  "answers": [
    {
      "text": "Oui",
      "target": "dtn19"
    },
    {
      "text": "Non",
      "target": "dtn22"
    }
  ]
}
