{
  "id": "dtn11",
  "question": "Ces documents présentent-ils des mentions relatives à la sécurité ou la sûreté de l'Etat ?",
  "answers": [
    {
      "text": "Oui",
      "target": "dtn14"
    },
    {
      "text": "Non",
      "target": "dtn15"
    }
  ]
}
