{
  "id": "dtn21",
  "question": "<div class='alert alert-dismissible alert-warning'>J'<a href='faq.html#anonymisation', target='_blank'>anonymise</a> ces données </div>",
  "answers": [
    {
      "text": "Suivant",
      "target": "dtn22"
    }
  ]
}
